%YAML 1.1
%TAG !u! tag:unity3d.com,2011:
--- !u!114 &11400000
MonoBehaviour:
  m_ObjectHideFlags: 0
  m_CorrespondingSourceObject: {fileID: 0}
  m_PrefabInstance: {fileID: 0}
  m_PrefabAsset: {fileID: 0}
  m_GameObject: {fileID: 0}
  m_Enabled: 1
  m_EditorHideFlags: 0
  m_Script: {fileID: -2067819806, guid: c8d0ad23af520fe46aabe2b1fecf6462, type: 3}
  m_Name: ApplicationVariables
  m_EditorClassIdentifier: 
  _data:
    _json: '{"declarations":{"collection":{"$content":[{"name":"RusoType","value":{"$content":"F_ruso","$type":"element_type"},"$version":"A"},{"name":"MatrixType","value":{"$content":"F_matrix","$type":"element_type"},"$version":"A"},{"name":"MuerteType","value":{"$content":"F_muerte","$type":"element_type"},"$version":"A"},{"name":"BuenoType","value":{"$content":"F_bueno","$type":"element_type"},"$version":"A"},{"name":"DrogaType","value":{"$content":"F_droga","$type":"element_type"},"$version":"A"},{"name":"SuperCovidType","value":{"$content":"F_supercovid","$type":"element_type"},"$version":"A"},{"name":"AguaBenditaType","value":{"$content":"s_aguabendita","$type":"element_type"},"$version":"A"},{"name":"ParacetamolType","value":{"$content":"s_paracetamol","$type":"element_type"},"$version":"A"},{"name":"AcidoComicoType","value":{"$content":"s_acidocomico","$type":"element_type"},"$version":"A"},{"name":"KetorolacoType","value":{"$content":"s_Ketorolaco","$type":"element_type"},"$version":"A"},{"name":"vacuna","value":{"$content":"envase","$type":"element_type"},"$version":"A"},{"name":"activo-bueno","value":{"$content":false,"$type":"System.Boolean"},"$version":"A"},{"name":"activo-ruso","value":{"$content":false,"$type":"System.Boolean"},"$version":"A"},{"name":"activo-scovid","value":{"$content":false,"$type":"System.Boolean"},"$version":"A"},{"name":"activo-muerte","value":{"$content":false,"$type":"System.Boolean"},"$version":"A"},{"name":"activo-droga","value":{"$content":false,"$type":"System.Boolean"},"$version":"A"},{"name":"activo-matrix","value":{"$content":false,"$type":"System.Boolean"},"$version":"A"}],"$version":"A"},"$version":"A"}}'
    _objectReferences: []
