%YAML 1.1
%TAG !u! tag:unity3d.com,2011:
--- !u!114 &11400000
MonoBehaviour:
  m_ObjectHideFlags: 0
  m_CorrespondingSourceObject: {fileID: 0}
  m_PrefabInstance: {fileID: 0}
  m_PrefabAsset: {fileID: 0}
  m_GameObject: {fileID: 0}
  m_Enabled: 1
  m_EditorHideFlags: 0
  m_Script: {fileID: -1893448595, guid: a040fb66244a7f54289914d98ea4ef7d, type: 3}
  m_Name: Ir-lab
  m_EditorClassIdentifier: 
  _data:
    _json: '{"graph":{"variables":{"collection":{"$content":[],"$version":"A"},"$version":"A"},"controlInputDefinitions":[],"controlOutputDefinitions":[],"valueInputDefinitions":[],"valueOutputDefinitions":[],"title":"","summary":null,"pan":{"x":-258.8462,"y":17.72748},"zoom":0.9,"elements":[{"chainable":false,"member":{"name":"LoadScene","parameterTypes":["System.String"],"targetType":"UnityEngine.SceneManagement.SceneManager","targetTypeName":"UnityEngine.SceneManagement.SceneManager","$version":"A"},"defaultValues":{"%sceneName":{"$content":"03-Lab","$type":"System.String"}},"position":{"x":-6.0,"y":-39.0},"guid":"9cfe6b17-0311-4190-a1fa-0aaeaed2d617","$version":"A","$type":"Bolt.InvokeMember","$id":"9"},{"specifyFallback":false,"kind":"Object","defaultValues":{"name":{"$content":"scene","$type":"System.String"},"object":null},"position":{"x":-376.0,"y":44.0},"guid":"7522d27c-0933-4980-af34-418740d5071e","$version":"A","$type":"Bolt.GetVariable","$id":"12"},{"coroutine":false,"defaultValues":{"target":null},"position":{"x":-441.0,"y":-96.0},"guid":"f5ab5ea8-90f5-47d7-b8fd-2428f7da2604","$version":"A","$type":"Bolt.OnButtonClick","$id":"14"},{"sourceUnit":{"$ref":"14"},"sourceKey":"trigger","destinationUnit":{"$ref":"9"},"destinationKey":"enter","guid":"93726f0e-5f82-4f05-ac32-3987b75bf9bd","$type":"Bolt.ControlConnection"},{"sourceUnit":{"$ref":"12"},"sourceKey":"value","destinationUnit":{"$ref":"9"},"destinationKey":"%sceneName","guid":"902d65cd-ee28-41d6-a336-88621b2c805b","$type":"Bolt.ValueConnection"}],"$version":"A"}}'
    _objectReferences: []
