%YAML 1.1
%TAG !u! tag:unity3d.com,2011:
--- !u!114 &11400000
MonoBehaviour:
  m_ObjectHideFlags: 0
  m_CorrespondingSourceObject: {fileID: 0}
  m_PrefabInstance: {fileID: 0}
  m_PrefabAsset: {fileID: 0}
  m_GameObject: {fileID: 0}
  m_Enabled: 1
  m_EditorHideFlags: 0
  m_Script: {fileID: -1893448595, guid: a040fb66244a7f54289914d98ea4ef7d, type: 3}
  m_Name: Ir-pruebas
  m_EditorClassIdentifier: 
  _data:
    _json: '{"graph":{"variables":{"collection":{"$content":[],"$version":"A"},"$version":"A"},"controlInputDefinitions":[],"controlOutputDefinitions":[],"valueInputDefinitions":[],"valueOutputDefinitions":[],"title":null,"summary":null,"pan":{"x":-17.96815,"y":48.96375},"zoom":0.7500001,"elements":[{"chainable":false,"member":{"name":"LoadScene","parameterTypes":["System.String"],"targetType":"UnityEngine.SceneManagement.SceneManager","targetTypeName":"UnityEngine.SceneManagement.SceneManager","$version":"A"},"defaultValues":{"%sceneName":{"$content":"03-Lab","$type":"System.String"}},"position":{"x":121.0,"y":-119.0},"guid":"f04a3680-41c1-4de2-b555-11771010871d","$version":"A","$type":"Bolt.InvokeMember","$id":"9"},{"specifyFallback":false,"kind":"Object","defaultValues":{"name":{"$content":"scene","$type":"System.String"},"object":null},"position":{"x":-170.0,"y":34.0},"guid":"8464664c-8e0c-40af-bd0f-7050db9e55ac","$version":"A","$type":"Bolt.GetVariable","$id":"12"},{"coroutine":false,"defaultValues":{"target":null},"position":{"x":-250.0,"y":-139.0},"guid":"13aae877-4774-4bd1-ae87-43f61ab69d52","$version":"A","$type":"Bolt.OnButtonClick","$id":"14"},{"sourceUnit":{"$ref":"14"},"sourceKey":"trigger","destinationUnit":{"$ref":"9"},"destinationKey":"enter","guid":"0d084109-e0a0-42d6-bc5b-4edafe6ed18c","$type":"Bolt.ControlConnection"},{"sourceUnit":{"$ref":"12"},"sourceKey":"value","destinationUnit":{"$ref":"9"},"destinationKey":"%sceneName","guid":"526f01f8-51f2-4f55-84f7-f99925619dbe","$type":"Bolt.ValueConnection"}],"$version":"A"}}'
    _objectReferences: []
